{"data":[{"id":"GraWNCf9c0KKIyBNxpJ9Sg","blobContainerId":"27720ade-e7d0-48ce-b808-cb086277eae0","organizationId":"05NzHO7OY0e1UUiMM38eiQ","description":"test","locale":"en-US","logo":{"uri":"https://corecommunitydev003.blob.core.windows.net/27720ade-e7d0-48ce-b808-cb086277eae0/3d905307-6688-4cfa-8630-2c5be9325cda.jpg","contentType":"image/jpeg"},"headerImage":{"uri":"https://corecommunitydev003.blob.core.windows.net/27720ade-e7d0-48ce-b808-cb086277eae0/53594231-5f3c-41b2-8ff2-0fd85f1515b1.jpg","contentType":"image/jpeg"},"missionStatement":"test","name":"test","users":[],"isActive":false,"isPublished":false,"isPublic":false,"isMember":false,"joinDate":null,"canLeave":true,"memberCount":0,"userEmailFilters":[],"createdOn":"0001-01-01T00:00:00"},{"id":"NZvovQeoGkyvgDaTrjKSzQ","blobContainerId":"0e0c3134-7723-4d85-aaa0-56ad41b12574","organizationId":"05NzHO7OY0e1UUiMM38eiQ","description":"Oh, what a great comminity","locale":"en-US","logo":{"uri":null,"contentType":null},"headerImage":{"uri":"https://corecommunitydev001.blob.core.windows.net/0e0c3134-7723-4d85-aaa0-56ad41b12574/7ab48db4-63b9-4240-9adf-c12cf08865e2.jpg","contentType":"image/jpeg"},"missionStatement":"This is a new community","name":"Test New Communitu","users":[],"isActive":false,"isPublished":false,"isPublic":false,"isMember":false,"joinDate":null,"canLeave":true,"memberCount":0,"userEmailFilters":[],"createdOn":"0001-01-01T00:00:00"},{"id":"um56HoCKZkmymMPwEpR2Kw","blobContainerId":"0c9d46a7-04bd-498d-8602-e65d6ec6782d","organizationId":"05NzHO7OY0e1UUiMM38eiQ","description":"Next test description on community 05NzHO7OY0e1UUiMM38eiQ","locale":"en-US","logo":{"uri":"https://corecommunitydev002.azureedge.net/0c9d46a7-04bd-498d-8602-e65d6ec6782d/72e751f1-7944-4335-b89c-f35cf1b1bf91.jpg","contentType":"image/jpeg"},"headerImage":{"uri":"https://corecommunitydev002.azureedge.net/0c9d46a7-04bd-498d-8602-e65d6ec6782d/e867d6ce-90f0-4b8e-8727-45486067ad24.jpg","contentType":"image/jpeg"},"missionStatement":"Next test community on 05NzHO7OY0e1UUiMM38eiQ","name":"Next test community","users":[{"userId":"jPugMlMOs02lUvpuQMkQ3g","joinDate":"2016-04-01T18:33:02.9079581Z"}],"isActive":true,"isPublished":false,"isPublic":false,"isMember":true,"joinDate":"2016-04-01T18:33:02.9079581Z","canLeave":true,"memberCount":1,"userEmailFilters":[],"createdOn":"2016-04-01T18:29:32.5081846Z"},{"id":"x2gJcQh26UiGPS53CEbP2Q","blobContainerId":"cc871c75-dcd1-4863-8069-8e7f72251589","organizationId":"05NzHO7OY0e1UUiMM38eiQ","description":"Test community on 05NzHO7OY0e1UUiMM38eiQ description","locale":"en-US","logo":{"uri":"https://corecommunitydev003.blob.core.windows.net/cc871c75-dcd1-4863-8069-8e7f72251589/ab28212b-8774-4fb3-a688-117157f2a61a.jpg","contentType":"image/jpeg"},"headerImage":{"uri":"https://corecommunitydev003.blob.core.windows.net/cc871c75-dcd1-4863-8069-8e7f72251589/3cab2a65-3f99-4e61-b0b9-cad078a1f361.jpg","contentType":"image/jpeg"},"missionStatement":"This is a test community on 05NzHO7OY0e1UUiMM38eiQ","name":"Test Community","users":[],"isActive":true,"isPublished":false,"isPublic":false,"isMember":false,"joinDate":null,"canLeave":true,"memberCount":0,"userEmailFilters":[],"createdOn":"0001-01-01T00:00:00"},{"id":"yZjnynZ0vEick9zXZM3kZQ","blobContainerId":"7862f659-62dc-4032-948d-26cd8086949e","organizationId":"05NzHO7OY0e1UUiMM38eiQ","description":"Back at again with the white vans.","locale":"en-US","logo":{"uri":null,"contentType":null},"headerImage":{"uri":"https://corecommunitydev002.blob.core.windows.net/7862f659-62dc-4032-948d-26cd8086949e/7109ca73-a0b5-4e55-ab15-c6f005c84da3.jpg","contentType":"image/jpeg"},"missionStatement":"A community For Daniel","name":"Daniel's Community","users":[],"isActive":false,"isPublished":false,"isPublic":false,"isMember":false,"joinDate":null,"canLeave":true,"memberCount":0,"userEmailFilters":[],"createdOn":"0001-01-01T00:00:00"},{"id":"1iV3uqhMF02j1epHif10vA","blobContainerId":"8d5ae01e-4ee4-49d0-b79f-09d4c193a37e","organizationId":"0OykpAzcb0yc4R26oikRog","description":"Desc","locale":"en-US","logo":{"uri":null,"contentType":null},"headerImage":{"uri":"https://corecommunitydev001.blob.core.windows.net/8d5ae01e-4ee4-49d0-b79f-09d4c193a37e/4748b106-d2fb-4762-b40f-e894bcf28695.jpg","contentType":"image/jpeg"},"missionStatement":"Kenny's second Community","name":"Kenny's 2","users":[],"isActive":false,"isPublished":false,"isPublic":false,"isMember":false,"joinDate":null,"canLeave":true,"memberCount":0,"userEmailFilters":[],"createdOn":"0001-01-01T00:00:00"},{"id":"8k4StSPS2EGCz8NGnTHqgg","blobContainerId":"5f94c5bf-d252-4995-9789-50525cf7550d","organizationId":"0OykpAzcb0yc4R26oikRog","description":"This is the third community","locale":"es-US","logo":{"uri":"https://corecommunitydev001.azureedge.net/5f94c5bf-d252-4995-9789-50525cf7550d/3e024b38-d4dc-4d55-8b2b-44591df3a286.png","contentType":"image/png"},"headerImage":{"uri":"https://corecommunitydev001.azureedge.net/5f94c5bf-d252-4995-9789-50525cf7550d/fe1fa944-92cb-49af-a74f-2cf2d84f3a7e.png","contentType":"image/png"},"missionStatement":"Eat well. Be active. Be healthy.","name":"Wellness Community","users":[],"isActive":true,"isPublished":true,"isPublic":false,"isMember":false,"joinDate":null,"canLeave":true,"memberCount":0,"userEmailFilters":[],"createdOn":"2016-03-30T19:02:04.5590445Z"},{"id":"9xpDSsR8MEKE44EepDXVaA","blobContainerId":"cb9e449c-20ff-43e8-ab53-5a89453fad97","organizationId":"0OykpAzcb0yc4R26oikRog","description":"test on 0OykpAzcb0yc4R26oikRog desc","locale":"es-US","logo":{"uri":"https://corecommunitydev003.blob.core.windows.net/cb9e449c-20ff-43e8-ab53-5a89453fad97/02780874-f086-4902-99f6-81f22b993718.png","contentType":"image/png"},"headerImage":{"uri":"https://corecommunitydev003.blob.core.windows.net/cb9e449c-20ff-43e8-ab53-5a89453fad97/ef7fb722-2060-43dd-8649-4418d46bad81.png","contentType":"image/png"},"missionStatement":"test on 0OykpAzcb0yc4R26oikRog tag","name":"Healthy Eating","users":[],"isActive":false,"isPublished":false,"isPublic":false,"isMember":false,"joinDate":null,"canLeave":true,"memberCount":0,"userEmailFilters":[],"createdOn":"0001-01-01T00:00:00"},{"id":"BXmilfY1J0mAjCEv8u7FfQ","blobContainerId":"58ec9a0f-c5e3-47ba-9027-c54aed4cb4db","organizationId":"0OykpAzcb0yc4R26oikRog","description":"The description","locale":"es-US","logo":{"uri":"https://corecommunitydev003.azureedge.net/58ec9a0f-c5e3-47ba-9027-c54aed4cb4db/823d0359-6e94-47a6-94ec-f3b2b5682d9d.png","contentType":"image/png"},"headerImage":{"uri":"https://corecommunitydev003.azureedge.net/58ec9a0f-c5e3-47ba-9027-c54aed4cb4db/b1c6d597-c179-486a-9ad4-4cb63b2fc522.png","contentType":"image/png"},"missionStatement":"123","name":"Kenny Test Campaign","users":[],"isActive":true,"isPublished":false,"isPublic":false,"isMember":false,"joinDate":null,"canLeave":true,"memberCount":0,"userEmailFilters":[],"createdOn":"2016-04-07T20:37:20.3761319Z"},{"id":"Gzz4cyp4SkSGCfgCthEzsA","blobContainerId":"c9fdde8f-39f7-4aea-b57d-6fd89ce33876","organizationId":"0OykpAzcb0yc4R26oikRog","description":"Eating well is a habit that we should form starting the day we're born.","locale":"es-US","logo":{"uri":"https://corecommunitydev002.azureedge.net/c9fdde8f-39f7-4aea-b57d-6fd89ce33876/eef2c254-5fbe-4d61-933e-501a44d10e8d.png","contentType":"image/png"},"headerImage":{"uri":"https://corecommunitydev002.azureedge.net/c9fdde8f-39f7-4aea-b57d-6fd89ce33876/5ac80c31-7fba-48e0-b2e8-af6bf70f8c75.png","contentType":"image/png"},"missionStatement":"Eat well oftener","name":"Health Eating for Young Families II","users":[{"userId":"3IJt51ZKKkydJI7dusoNlw","joinDate":"2016-03-30T21:43:11.2467695Z"}],"isActive":true,"isPublished":true,"isPublic":false,"isMember":false,"joinDate":null,"canLeave":true,"memberCount":1,"userEmailFilters":[],"createdOn":"2016-03-30T19:15:16.3510253Z"},{"id":"JMlkYhJSnUOuiOhKE1ZKWQ","blobContainerId":"9d30c70c-926f-4b0f-8deb-84fbf31561f0","organizationId":"0OykpAzcb0yc4R26oikRog","description":"Scrum Scrum Scrum","locale":"es-US","logo":{"uri":"https://corecommunitydev002.azureedge.net/9d30c70c-926f-4b0f-8deb-84fbf31561f0/528d5f39-d60b-418a-82be-caab9e35f34b.png","contentType":"image/png"},"headerImage":{"uri":"https://corecommunitydev002.azureedge.net/9d30c70c-926f-4b0f-8deb-84fbf31561f0/1e1fd4ac-5ca5-41e8-a607-9e8518d3aed0.jpg","contentType":"image/jpeg"},"missionStatement":"Kenny's Rugby Club","name":"Kenny Community Updated III","users":[],"isActive":true,"isPublished":true,"isPublic":false,"isMember":false,"joinDate":null,"canLeave":true,"memberCount":0,"userEmailFilters":[],"createdOn":"1601-01-01T00:00:00Z"},{"id":"Ks85BcnQWUOHpxPrpb2pTw","blobContainerId":"e353a402-10a6-4cb7-bcf3-130a57d2c232","organizationId":"0OykpAzcb0yc4R26oikRog","description":"Dance Dance Dance","locale":"es-US","logo":{"uri":"https://corecommunitydev002.azureedge.net/e353a402-10a6-4cb7-bcf3-130a57d2c232/b5c873d7-ba3e-4cbc-bbb3-8b6745b6db4c.png","contentType":"image/png"},"headerImage":{"uri":"https://corecommunitydev002.azureedge.net/e353a402-10a6-4cb7-bcf3-130a57d2c232/ee5888dd-d63f-4806-9b07-b2957ffb4c48.png","contentType":"image/png"},"missionStatement":"Make every second count","name":"Second Community Tested","users":[],"isActive":true,"isPublished":false,"isPublic":false,"isMember":false,"joinDate":null,"canLeave":true,"memberCount":0,"userEmailFilters":[],"createdOn":"2016-04-01T20:24:35.6841973Z"},{"id":"cdyOB6qOcUymmb6bGVIY0A","blobContainerId":"dd7e4f7c-7a02-4787-853f-d3d33690d022","organizationId":"0OykpAzcb0yc4R26oikRog","description":"Long old description of the tagline","locale":"es-US","logo":{"uri":"https://corecommunitydev001.azureedge.net/dd7e4f7c-7a02-4787-853f-d3d33690d022/c734e624-dd88-4e71-b3de-379fdb7ab404.png","contentType":"image/png"},"headerImage":{"uri":"https://corecommunitydev001.azureedge.net/dd7e4f7c-7a02-4787-853f-d3d33690d022/93ab7813-7184-4ed3-85fb-16c356fa7fdb.png","contentType":"image/png"},"missionStatement":"The Test Tagline","name":"Daniel's Community","users":[],"isActive":true,"isPublished":false,"isPublic":false,"isMember":false,"joinDate":null,"canLeave":true,"memberCount":0,"userEmailFilters":[],"createdOn":"2016-03-31T19:55:26.4468384Z"},{"id":"nKjg1ct6dUiTpy8enjlZpA","blobContainerId":"42b13a08-d754-4790-9101-fc7c57e54e9e","organizationId":"0OykpAzcb0yc4R26oikRog","description":"Description of this here community","locale":"en-US","logo":{"uri":"https://corecommunitydev002.azureedge.net/42b13a08-d754-4790-9101-fc7c57e54e9e/4584e21a-71e1-4aa0-aaa0-d23fe771c5d0.jpg","contentType":"image/jpeg"},"headerImage":{"uri":"https://corecommunitydev002.azureedge.net/42b13a08-d754-4790-9101-fc7c57e54e9e/67c829e4-696f-4c0e-8fc8-5d62e80a9624.png","contentType":"image/png"},"missionStatement":"More Pots To Bake Up","name":"Not in this one Community","users":[],"isActive":true,"isPublished":false,"isPublic":false,"isMember":false,"joinDate":null,"canLeave":true,"memberCount":0,"userEmailFilters":[],"createdOn":"2016-04-07T19:38:56.9619126Z"},{"id":"pgQifmne5UOo7ZfZc4tsZQ","blobContainerId":"c3110ea8-3f39-4979-9178-fc7f8b02b3be","organizationId":"0OykpAzcb0yc4R26oikRog","description":"","locale":"es-US","logo":{"uri":null,"contentType":null},"headerImage":{"uri":null,"contentType":null},"missionStatement":"","name":"","users":[],"isActive":false,"isPublished":false,"isPublic":false,"isMember":false,"joinDate":null,"canLeave":true,"memberCount":0,"userEmailFilters":[],"createdOn":"2016-04-04T20:10:30.1539776Z"},{"id":"pzWh8cveoE2wWH84xjbw4g","blobContainerId":"a0675451-1777-4b53-8fa3-1769a78c6dde","organizationId":"0OykpAzcb0yc4R26oikRog","description":"TEst stay","locale":"es-US","logo":{"uri":"https://corecommunitydev001.azureedge.net/a0675451-1777-4b53-8fa3-1769a78c6dde/6aff50f8-67c9-40c5-8895-07515fe7c794.png","contentType":"image/png"},"headerImage":{"uri":"https://corecommunitydev001.azureedge.net/a0675451-1777-4b53-8fa3-1769a78c6dde/8bae330b-100f-4e85-947a-34dc761126aa.jpg","contentType":"image/jpeg"},"missionStatement":"Testsstay","name":"Test Stay","users":[],"isActive":true,"isPublished":false,"isPublic":false,"isMember":false,"joinDate":null,"canLeave":true,"memberCount":0,"userEmailFilters":[],"createdOn":"2016-04-07T20:15:10.8997496Z"},{"id":"qURgD4OazU2gpvkqxHOTOQ","blobContainerId":"ffe8c076-ebdf-4c1a-a1ce-6e49066ba5df","organizationId":"0OykpAzcb0yc4R26oikRog","description":"123","locale":"es-US","logo":{"uri":null,"contentType":null},"headerImage":{"uri":null,"contentType":null},"missionStatement":"test","name":"Kenny Test Community","users":[],"isActive":true,"isPublished":false,"isPublic":false,"isMember":false,"joinDate":null,"canLeave":true,"memberCount":0,"userEmailFilters":[],"createdOn":"2016-04-07T20:29:52.9254476Z"},{"id":"xL64ccBtHEenLfowGHBqyw","blobContainerId":"0ffcfd39-e109-4016-be98-7e8e20358c6e","organizationId":"0OykpAzcb0yc4R26oikRog","description":"test base dest","locale":"en-US","logo":{"uri":"https://corecommunitydev002.azureedge.net/0ffcfd39-e109-4016-be98-7e8e20358c6e/8b7a91e4-3ef1-46e6-a100-7559be7224e7.png","contentType":"image/png"},"headerImage":{"uri":"https://corecommunitydev002.azureedge.net/0ffcfd39-e109-4016-be98-7e8e20358c6e/f1b89508-f22c-4504-aeb6-e0a6d25608ef.png","contentType":"image/png"},"missionStatement":"Test base tag","name":"Test Base","users":[],"isActive":true,"isPublished":false,"isPublic":false,"isMember":false,"joinDate":null,"canLeave":true,"memberCount":0,"userEmailFilters":[],"createdOn":"2016-04-07T19:57:39.4262626Z"},{"id":"yU1bfhIwUEe4QitEJ9yAtg","blobContainerId":"1d129ac8-97cf-45c5-bc7d-0f4c5f26731e","organizationId":"0OykpAzcb0yc4R26oikRog","description":"test","locale":"es-US","logo":{"uri":null,"contentType":null},"headerImage":{"uri":null,"contentType":null},"missionStatement":"1234","name":"Kenny Testing","users":[],"isActive":true,"isPublished":false,"isPublic":false,"isMember":false,"joinDate":null,"canLeave":true,"memberCount":0,"userEmailFilters":[],"createdOn":"2016-04-07T20:39:06.7745519Z"},{"id":"VrXYjrB63EeriZ2iHl28ng","blobContainerId":"f96afc45-b546-4927-95c7-02cdf6c65f1f","organizationId":"2ZyHC8bxWkaTMVLENITgMg","description":"teate","locale":"en-US","logo":{"uri":null,"contentType":null},"headerImage":{"uri":"https://corecommunitydev002.blob.core.windows.net/f96afc45-b546-4927-95c7-02cdf6c65f1f/f2d438bf-ee74-41c8-afcb-b54da4ff6d11.jpg","contentType":"image/jpeg"},"missionStatement":"test","name":"Test Logo 2","users":[],"isActive":false,"isPublished":false,"isPublic":false,"isMember":false,"joinDate":null,"canLeave":true,"memberCount":0,"userEmailFilters":[],"createdOn":"0001-01-01T00:00:00"}],"paging":{"previous":null,"current":"https://higi-dev-core-community-api.azurewebsites.net:443/communities?pageNumber=1&pageSize=20","next":"https://higi-dev-core-community-api.azurewebsites.net:443/communities?pageNumber=2&pageSize=20","pageNumber":1,"pageSize":20,"total":41}}
